

Development sap credentials Sanjeev
sadeveloper	DevSA@01	D01	192.168.1.61	00	110	EN	Y	/H/59.165.153.135/S/3299/H/

Quality sap credentials Sanjeev
UserId	Password1	System	ApplicationServer	SystemNumber	Client	Language	ApplyRouter	SAPRouter
bnp934	navnath@786	Q01	192.168.1.62	01	310	EN	Y	/H/59.165.153.135/S/3299/H/



@123