C7 in
192.168.1.111 186
192.168.1.112 190

K96 in 
192.168.3.111 125
192.168.3.112 124

M115
192.168.11.111 98
192.168.11.112 71

C4
192.168.7.113 0
192.168.7.114 26

C86
192.168.1.108 0
192.168.1.109 0

C89
192.168.3.113 16
192.168.3.114 16